\BOOKMARK [1][]{Богдан Гладишев.1}{Богдан Гладишев}{}% 1
\BOOKMARK [2][]{PDF:Education.2}{Education}{Богдан Гладишев.1}% 2
\BOOKMARK [2][]{PDF:2011-2015.2}{2011-2015}{Богдан Гладишев.1}% 3
\BOOKMARK [2][]{PDF:Modules included.2}{Modules\040included}{Богдан Гладишев.1}% 4
\BOOKMARK [2][]{PDF:Projects.2}{Projects}{Богдан Гладишев.1}% 5
\BOOKMARK [2][]{PDF:Skills.2}{Skills}{Богдан Гладишев.1}% 6
\BOOKMARK [2][]{PDF:Languages.2}{Languages}{Богдан Гладишев.1}% 7
\BOOKMARK [2][]{PDF:Interests.2}{Interests}{Богдан Гладишев.1}% 8
